@startuml
database Postgres as DB
autonumber

mobileApp->Backend: POST "api/v1/auth/register"
Backend->DB: check if user exists
DB->Backend: return user or nothing
alt#Gold #ADD1B2 Success case
   Backend->DB: insert user
   DB->Backend: return user
   Backend->mobileApp: http 201 OK
   database Postgres as DB
else #Pink Error
    Backend->mobileApp: http 409 if user exists
end
mobileApp->Backend: POST "api/v1/add_device"
Backend->DB: check if device exists id database
DB->Backend: return device info
alt#Gold #ADD1B2 new device
   Backend->DB: insert device
   DB->Backend: return device
   Backend->mobileApp: http 201 OK
   database Postgres as DB
else #Pink link device
    Backend->mobileApp: http 201 OK
end
@enduml